rqog-package for R
…
##   ccp_cc    n ccp_cc_lab
## 1      1  507     1. Yes
## 2      2 8850      2. No
## 3     96  246  96. Other
## 4     NA 6222       <NA>

So, lets find two factor variables with few more values from the cross-sectional data

meta_basic_cs_2020 %>% 
  filter(class =="factor") %>% 
  group_by(code) %>% 
  summarise(n_of_values = n()) %>% 
  arrange(desc(n_of_values))

## # A tibble: 26 x 2
##    code         n_of_values
##    <chr>              <int>
##  1 gol_pr                28
##  2 ht_regtype            20
##  3 ht_regtype1           13
##  4 gol_est_spec          12
##  5 ht_colonial           11
##  6 ht_region             10
##  7 cpds_tg                7
##  8 ccp_slave              6
##  9 ccp_cc                 5
## 10 ccp_childwrk           5
## # ... with 16 more rows
…
